Quantitative Metabarcoding
…
      March 12, 2025

devtools::install_github("gledguri/QM",dependencies = TRUE, force = T );library(QM)

Warning in i.p(...): installation of package
'/var/folders/7x/t1xdc7_91mgc7y8qbc6c8v3c0000gn/T//RtmpAnbWBb/file418540a78140/QM_1.0.0.tar.gz'
had non-zero exit status

load_QM_packages()

# Load data -----------------------------------------------------------------------------------
data(qpcr);force(qpcr)

# A tibble: 817 × 7
   Well  Sample_name Species      Sample_type Ct         Plate Std_concentration
   <chr> <chr>       <chr>        <chr>       <chr>      <chr>             <dbl>
 1 A1    Std-CS1     Gadus morhua STANDARD    17.173664… Plat…           1000000
 2 B1    Std-CS2     Gadus morhua STANDARD    20.325162… Plat…            100000
 3 C1    Std-CS3     Gadus morhua STANDARD    24.269653… Plat…             10000
 4 D1    Std-CS4     Gadus morhua STANDARD    26.894132… Plat…              1000
 5 E1    Std-CS5     Gadus morhua STANDARD    30.737422… Plat…               100
 6 F1    Std-CS6     Gadus morhua STANDARD    33.8976326 Plat…                10
 7 G1    Std-CS7     Gadus morhua STANDARD    36.951030… Plat…                 1
 8 A2    Std-CS1     Gadus morhua STANDARD    17.411361… Plat…           1000000
 9 C2    Std-CS3     Gadus morhua STANDARD    24.2088623 Plat…             10000
10 D2    Std-CS4     Gadus morhua STANDARD    27.221132… Plat…              1000
# ℹ 807 more rows
…
